<?xml version="1.0" encoding="UTF-8"?>
<svg width="22px" height="22px" viewBox="0 0 22 22" version="1.1" xmlns="http://www.w3.org/2000/svg" xmlns:xlink="http://www.w3.org/1999/xlink">
    <!-- Generator: Sketch 61.1 (89650) - https://sketch.com -->
    <title>icons / add</title>
    <desc>Created with Sketch.</desc>
    <defs>
        <path d="M11,3 C11.5522847,3 12,3.44771525 12,4 L12,9.999 L18,10 C18.5522847,10 19,10.4477153 19,11 C19,11.5522847 18.5522847,12 18,12 L12,12 L12,18 C12,18.5522847 11.5522847,19 11,19 C10.4477153,19 10,18.5522847 10,18 L10,12 L4,12 C3.44771525,12 3,11.5522847 3,11 C3,10.4477153 3.44771525,10 4,10 L10,10 L10,4 C10,3.44771525 10.4477153,3 11,3 Z" id="path-1"></path>
    </defs>
    <g id="icons-/-add" stroke="none" stroke-width="1" fill="none" fill-rule="evenodd">
        <mask id="mask-2" fill="white">
            <use xlink:href="#path-1"></use>
        </mask>
        <use id="↳-Fill" fill="#FFFFFF" xlink:href="#path-1"></use>
    </g>
</svg>