<?xml version="1.0" encoding="UTF-8"?>
<svg width="32px" height="32px" viewBox="0 0 32 32" version="1.1" xmlns="http://www.w3.org/2000/svg" xmlns:xlink="http://www.w3.org/1999/xlink">
    <!-- Generator: Sketch 63.1 (92452) - https://sketch.com -->
    <title>icons / bitbucket</title>
    <desc>Created with Sketch.</desc>
    <defs>
        <linearGradient x1="108.63338%" y1="30.1117195%" x2="46.9265964%" y2="65.8174868%" id="linearGradient-1">
            <stop stop-color="#0052CC" offset="18%"></stop>
            <stop stop-color="#2684FF" offset="100%"></stop>
        </linearGradient>
    </defs>
    <g id="icons-/-bitbucket" stroke="none" stroke-width="1" fill="none" fill-rule="evenodd">
        <g id="Group-2" transform="translate(0.000000, 2.000000)">
            <polygon id="Path" points="12.5591408 18.9208006 19.1877122 18.9208006 20.7877122 9.57984823 10.7966011 9.57984823"></polygon>
            <path d="M1.02898204,8.10398409e-05 C0.728875141,-0.00370494848 0.442416508,0.125327622 0.246448524,0.352650483 C0.0504805409,0.579973343 -0.0349370323,0.882317172 0.0131090252,1.17857839 L4.32548998,27.357626 C4.43639797,28.0189062 5.00610785,28.5050872 5.67660109,28.5107272 L26.3648551,28.5107272 C26.8681112,28.5171191 27.3002421,28.1541292 27.3807281,27.6573085 L31.693109,1.18365776 C31.7411551,0.887396537 31.6557375,0.585052708 31.4597695,0.357729848 C31.2638015,0.130406987 30.9773429,0.0013744166 30.677236,0.00524505782 L1.02898204,8.10398409e-05 Z M19.1877122,18.9208006 L12.5845376,18.9208006 L10.7966011,9.57984823 L20.7877122,9.57984823 L19.1877122,18.9208006 Z" id="Shape" fill="#2684FF" fill-rule="nonzero"></path>
            <path d="M30.3216805,9.57984823 L20.7877122,9.57984823 L19.1877122,18.9208006 L12.5845376,18.9208006 L4.7877122,28.1754038 C5.03483711,28.389094 5.34991036,28.5079216 5.67660109,28.5107272 L26.3699344,28.5107272 C26.8731906,28.5171191 27.3053215,28.1541292 27.3858074,27.6573085 L30.3216805,9.57984823 Z" id="Path" fill="url(#linearGradient-1)" fill-rule="nonzero"></path>
        </g>
    </g>
</svg>