<?xml version="1.0" encoding="UTF-8"?>
<svg width="32px" height="32px" viewBox="0 0 32 32" version="1.1" xmlns="http://www.w3.org/2000/svg" xmlns:xlink="http://www.w3.org/1999/xlink">
    <!-- Generator: Sketch 63.1 (92452) - https://sketch.com -->
    <title>icons / git</title>
    <desc>Created with Sketch.</desc>
    <g id="icons-/-git" stroke="none" stroke-width="1" fill="none" fill-rule="evenodd">
        <g id="Git-Icon-1788C.eps" fill="#DE4C36">
            <path d="M31.357913,14.5965217 L17.4034783,0.642434783 C16.6003478,-0.161391304 15.2970435,-0.161391304 14.4925217,0.642434783 L11.5951304,3.54052174 L15.2706087,7.21634783 C16.1248696,6.92765217 17.1046957,7.1213913 17.7853913,7.80208696 C18.4702609,8.48730435 18.661913,9.47513043 18.3662609,10.3325217 L21.9088696,13.8751304 C22.7662609,13.5794783 23.7547826,13.7704348 24.4396522,14.4563478 C25.3961739,15.4125217 25.3961739,16.9627826 24.4396522,17.9196522 C23.4824348,18.8768696 21.9325217,18.8768696 20.9749565,17.9196522 C20.2553043,17.1996522 20.0775652,16.1422609 20.442087,15.256 L17.1377391,11.952 L17.1377391,20.6462609 C17.3707826,20.7617391 17.5909565,20.9158261 17.7853913,21.1095652 C18.741913,22.066087 18.741913,23.616 17.7853913,24.573913 C16.8288696,25.530087 15.277913,25.530087 14.322087,24.573913 C13.3655652,23.616 13.3655652,22.066087 14.322087,21.1095652 C14.5582609,20.8733913 14.8323478,20.6946087 15.1241739,20.5749565 L15.1241739,11.8 C14.8323478,11.6806957 14.5589565,11.5033043 14.322087,11.2657391 C13.5975652,10.5415652 13.4233043,9.47791304 13.7947826,8.58817391 L10.1711304,4.96382609 L0.602434783,14.5318261 C-0.201043478,15.3363478 -0.201043478,16.6396522 0.602434783,17.4434783 L14.5575652,31.3975652 C15.3610435,32.2010435 16.664,32.2010435 17.4688696,31.3975652 L31.357913,17.5081739 C32.162087,16.7043478 32.162087,15.4 31.357913,14.5965217" id="Fill-1"></path>
        </g>
    </g>
</svg>