<?xml version="1.0" encoding="UTF-8"?>
<svg width="22px" height="22px" viewBox="0 0 22 22" version="1.1" xmlns="http://www.w3.org/2000/svg" xmlns:xlink="http://www.w3.org/1999/xlink">
    <!-- Generator: Sketch 61.1 (89650) - https://sketch.com -->
    <title>icons / reload</title>
    <desc>Created with Sketch.</desc>
    <defs>
        <path d="M17.4826956,2.98314382 L18.1182884,6.5877701 C18.2140297,7.13074544 17.854503,7.64799355 17.3084994,7.7442687 L13.7038731,8.37986157 C13.1608978,8.47560277 12.9805803,8.18211074 13.2926023,7.73649708 L14.441167,6.09493007 C13.4669341,5.41167365 12.2802965,5.01067249 11,5.01067249 C7.6862915,5.01067249 5,7.69696399 5,11.0106725 C5,14.324381 7.6862915,17.0106725 11,17.0106725 C14.3137085,17.0106725 17,14.324381 17,11.0106725 L17.001,11.0097204 L17,11 C17,10.4871642 17.3860402,10.0644928 17.8833789,10.0067277 L18,10 C18.5522847,10 19,10.4477153 19,11 C19,11.0034008 18.999983,11.0067976 18.9999492,11.0101903 C19,15.4289505 15.418278,19.0106725 11,19.0106725 C6.581722,19.0106725 3,15.4289505 3,11.0106725 C3,6.59239449 6.581722,3.01067249 11,3.01067249 C12.707429,3.01067249 14.2899258,3.54557063 15.5890605,4.45693692 L16.7374678,2.81671928 C17.0533045,2.36565768 17.3864204,2.43714027 17.4826956,2.98314382 Z" id="path-1"></path>
    </defs>
    <g id="icons-/-reload" stroke="none" stroke-width="1" fill="none" fill-rule="evenodd">
        <mask id="mask-2" fill="white">
            <use xlink:href="#path-1"></use>
        </mask>
        <use id="↳-Fill" fill="#FFFFFF" xlink:href="#path-1"></use>
    </g>
</svg>